{
	"richtext":{
		"/richTextUrl": [
			"intro"
		]
	},
	"excape": {
		"/cat/save": [
			"name"
		],
		"/cat/update": [
			"name"
		],
		"/express/save": [
			"logo"
		],
		"/express/update": [
			"logo"
		]
	}
}