{
	"whiteList": {
		"a": {
			"href": "",
			"title": ""
		},
		"b": {
			
		},
		"blockquote": {
			"cite": ""
		},
		"br": {
			
		},
		"caption": {
			
		},
		"cite": {
			
		},
		"code": {
			
		},
		"col": {
			"span": "",
			"width": ""
		},
		"colgroup": {
			"span": "",
			"width": ""
		},
		"dd": {
			
		},
		"div": {
			"style": "/^text-align:\\s*(left|right|center);?\\s*$/i"
		},
		"dl": {
			
		},
		"dt": {
			
		},
		"em": {
			
		},
		"h1": {
			
		},
		"h2": {
			
		},
		"h3": {
			
		},
		"h4": {
			
		},
		"h5": {
			
		},
		"h6": {
			
		},
		"i": {
			
		},
		"img": {
			"align": "",
			"alt": "",
			"height": "",
			"src": "",
			"title": "",
			"width": ""
		},
		"li": {
			"class": "",
			"style": "/^text-align:\\s*(left|right|center);?\\s*$/i"
		},
		"ol": {
			"start": "",
			"type": ""
		},
		"p": {
			"style": "/^text-align:\\s*(left|right|center);?\\s*$/i"
		},
		"pre": {
			
		},
		"q": {
			"cite": ""
		},
		"small": {
			
		},
		"span": {
			"style": "/^\\s*font-family\\s*:\\s*(('|\\\"|\"|')?(楷体|楷体_GB2312|宋体|微软雅黑|黑体|,|\\s|\\w|sans-serif)('|\\\"|\"|')?)+;?\\s*|\\s*(color|font-size|background-color)\\s*:\\s*(#\\w*|[\\w\\s]*|rgb\\s*\\(\\s*\\d+\\s*,\\s*\\d+\\s*,\\s*\\d+\\s*\\));?\\s*|\\s*text-decoration\\s*:\\s*(underline|overline|line-through|blink)\\s*;?\\s*$/i"
		},
		"strike": {
			
		},
		"strong": {
			
		},
		"sub": {
			
		},
		"sup": {
			
		},
		"table": {
			"summary": "",
			"width": ""
		},
		"tbody": {
			
		},
		"td": {
			"abbr": "",
			"axis": "",
			"colspan": "",
			"rowspan": "",
			"width": ""
		},
		"tfoot": {
			
		},
		"th": {
			"abbr": "",
			"axis": "",
			"colspan": "",
			"rowspan": "",
			"scope": "",
			"width": ""
		},
		"thead": {
			
		},
		"tr": {
			
		},
		"u": {
			
		},
		"ul": {
			"type": "",
			"class": ""
		}
	},
	"protocols": {
		"a.href": [
			"ftp",
			"http",
			"https",
			"mailto"
		],
		"blockquote.cite": [
			"http",
			"https"
		],
		"cite.cite": [
			"http",
			"https"
		],
		"img.src": [
			"http",
			"https"
		],
		"q.cite": [
			"http",
			"https"
		]
	}
}