{
	"richtext":{
		"/richTextUrl": [
			"intro"
		],
		 '/dataTopo/save':[
		          'remark'
		 ],
		  '/dataTopo/update':[
		          'remark'
		 ]
	},
	"excape": {
		 '/dataSource/save':[
		          'url'
		 ],
		  '/dataSource/update':[
		          'url'
		 ],
		  '/researchReport/save':[
		          'content'
		 ],
		  '/researchReport/update':[
		          'content'
		 ]
	}
}